Finist’R 2023 - Construire un modèle parsnip
…
(Dispersion parameter for poisson family taken to be 1)

    Null deviance: 287.67  on 199  degrees of freedom
Residual deviance: 189.45  on 196  degrees of freedom
AIC: 373.5

Number of Fisher Scoring iterations: 6

poisson_reg() %>% 
     set_engine("glm") %>%
     set_mode("regression") %>%
     fit(num_awards ~ prog + math, data = p)  %>%
     predict(p)

# A tibble: 200 × 1
    .pred
    <dbl>
 1 0.135 
 2 0.0934
 3 0.167 
 4 0.145 
 5 0.126 
 6 0.100 
 7 0.192 
 8 0.126 
 9 0.0771
10 0.192 
# ℹ 190 more rows
…
poisson_reg() %>% 
     set_engine("PLN") %>%
     set_mode("regression") %>%
     fit(as.matrix(num_awards) ~ prog + math, data = p) %>% 
     predict(p)

 Initialization...
 Adjusting a full covariance PLN model with nlopt optimizer
 Post-treatments...
 DONE!

# A tibble: 200 × 1
   .pred_Y
     <dbl>
 1  0.134 
 2  0.0932
 3  0.166 
 4  0.144 
 5  0.125 
 6  0.100 
 7  0.191 
 8  0.125 
 9  0.0761
10  0.191 
# ℹ 190 more rows
…
